[
    { "type": "Feature", "properties": { "GID": 53, "Broj": "1191", "KatOpcina": 4021, "GranicniKa": null, "PL": 743, "Povrsina": 9938 }, "geometry": { "type": "MultiPolygon", "coordinates": [ [ [ [108.79430796784867, 40.36092828616131], [108.79427400210638, 40.3609549030151], [108.79424824531336, 40.36097509025455], [108.79652490561206, 40.363572993560894], [108.79660970483637, 40.363529026873785], [108.79664250401886, 40.36351212726898], [108.79439448156808, 40.36094681691836], [108.79435468182663, 40.36090140085777], [108.79430796784867, 40.36092828616131] ] ] ] } },
    { "type": "Feature", "properties": { "GID": 56, "Broj": "1192", "KatOpcina": 4021, "GranicniKa": null, "PL": 653, "Povrsina": 10596 }, "geometry": { "type": "MultiPolygon", "coordinates": [ [ [ [108.79424824531336, 40.36097509025455], [108.79413944979656, 40.361060400855536], [108.79639868619951, 40.363638438179926], [108.79652490561206, 40.363572993560894], [108.79424824531336, 40.36097509025455] ] ] ] } },
    { "type": "Feature", "properties": { "GID": 51, "Broj": "1153", "KatOpcina": 4021, "GranicniKa": null, "PL": 742, "Povrsina": 44424 }, "geometry": { "type": "MultiPolygon", "coordinates": [ [ [ [108.79654966630889, 40.36984748090965], [108.79659274936354, 40.36990068078147], [108.79671101621004, 40.37007577572905], [108.7967224075944, 40.370098001623006], [108.79678282505378, 40.37012004997763], [108.79748621471724, 40.36994780940019], [108.79646649374546, 40.368156557920365], [108.79617613891726, 40.367646487181496], [108.79603577747488, 40.367693363182156], [108.79547685642741, 40.36787481411896], [108.79545291876805, 40.367920752098314], [108.79561950508402, 40.36821342214336], [108.79654966630889, 40.36984748090965] ] ] ] } },
    { "type": "Feature", "properties": { "GID": 50, "Broj": "1190", "KatOpcina": 4021, "GranicniKa": null, "PL": 743, "Povrsina": 8941 }, "geometry": { "type": "MultiPolygon", "coordinates": [ [ [ [108.79664250401886, 40.36351212726898], [108.79674761632594, 40.36345697771779], [108.79671578161845, 40.36342066746702], [108.79453961723615, 40.360937075590414], [108.79450882712351, 40.36090193077449], [108.79447187061606, 40.3608597923399], [108.79443514024764, 40.36085514439483], [108.79435468182663, 40.36090140085777], [108.79439448156808, 40.36094681691836], [108.79664250401886, 40.36351212726898] ] ] ] } },
    { "type": "Feature", "properties": { "GID": 55, "Broj": "640/233", "KatOpcina": 4021, "GranicniKa": "G", "PL": 893, "Povrsina": 15398 }, "geometry": { "type": "MultiPolygon", "coordinates": [ [ [ [108.79657339324986, 40.365963538630844], [108.79683024779348, 40.365717586879896], [108.79680778173235, 40.36568993469736], [108.79625546171519, 40.36499089134948], [108.79588532871412, 40.36452101747707], [108.79566132346885, 40.36423663617721], [108.79565204034711, 40.36422538353566], [108.79533133661508, 40.36439042067269], [108.79545713702537, 40.36454976481957], [108.79657339324986, 40.365963538630844] ] ] ] } },
    { "type": "Feature", "properties": { "GID": 23, "Broj": "1147", "KatOpcina": 4021, "GranicniKa": null, "PL": 337, "Povrsina": 3472 }, "geometry": { "type": "MultiPolygon", "coordinates": [ [ [ [108.7975440482586, 40.36747072516222], [108.7974859801464, 40.367368678169036], [108.79742784277752, 40.36726669487414], [108.79736814577194, 40.367161817236294], [108.79735667732149, 40.36714159804394], [108.7972639489276, 40.36718222004888], [108.79776898524673, 40.368069083161664], [108.79803227361884, 40.368531404555995], [108.79811971647808, 40.368481551339336], [108.7980302718944, 40.36832451982083], [108.79796912169554, 40.368217091687505], [108.79790798042976, 40.36810972202153], [108.79788052376409, 40.36806159062346], [108.79784675669148, 40.368002300603166], [108.79778561632473, 40.36789493128238], [108.79772447656327, 40.36778756349269], [108.79766333038839, 40.36768013610381], [108.79760219152563, 40.36757276865942], [108.7975440482586, 40.36747072516222] ] ] ] } },
    { "type": "Feature", "properties": { "GID": 27, "Broj": "1150", "KatOpcina": 4021, "GranicniKa": null, "PL": 23, "Povrsina": 12601 }, "geometry": { "type": "MultiPolygon", "coordinates": [ [ [ [108.79768102064891, 40.36873803276311], [108.79731971726822, 40.36809925983743], [108.79689393340296, 40.36734647218876], [108.79669940805556, 40.36743308713091], [108.79708754802894, 40.36811485264168], [108.79805224538856, 40.36980924543418], [108.79821626095165, 40.36971990896067], [108.79817824684683, 40.36964661414088], [108.79816662016664, 40.36962569956582], [108.79815360968121, 40.36960076143208], [108.79800551053151, 40.36930919852229], [108.79795223743001, 40.36921213449037], [108.7979060828878, 40.369128039809475], [108.79784569661868, 40.369018013415825], [108.7976939101942, 40.368760567898356], [108.79768102064891, 40.36873803276311] ] ] ] } },
    { "type": "Feature", "properties": { "GID": 36, "Broj": "1151", "KatOpcina": 4021, "GranicniKa": null, "PL": 33, "Povrsina": 24107 }, "geometry": { "type": "MultiPolygon", "coordinates": [ [ [ [108.79764750131307, 40.369908342792954], [108.79805224538856, 40.36980924543418], [108.79708754802894, 40.36811485264168], [108.79669940805556, 40.36743308713091], [108.79633049782113, 40.367594968006806], [108.79664342951001, 40.36814467708833], [108.79764750131307, 40.369908342792954] ] ] ] } },
    { "type": "Feature", "properties": { "GID": 31, "Broj": "1148", "KatOpcina": 4021, "GranicniKa": null, "PL": 318, "Povrsina": 7242 }, "geometry": { "type": "MultiPolygon", "coordinates": [ [ [ [108.7971996137852, 40.367210353235045], [108.79707302641444, 40.36726671355652], [108.79753870613038, 40.36808455120533], [108.79785175885016, 40.36863431285331], [108.79803227361884, 40.368531404555995], [108.79776898524673, 40.368069083161664], [108.7972639489276, 40.36718222004888], [108.7971996137852, 40.367210353235045] ] ] ] } },
    { "type": "Feature", "properties": { "GID": 40, "Broj": "1149", "KatOpcina": 4021, "GranicniKa": null, "PL": 340, "Povrsina": 6979 }, "geometry": { "type": "MultiPolygon", "coordinates": [ [ [ [108.79707302641444, 40.36726671355652], [108.79689393340296, 40.36734647218876], [108.79731971726822, 40.36809925983743], [108.79768102064891, 40.36873803276311], [108.7976848999172, 40.36873565441841], [108.79782022532865, 40.368652246589015], [108.79785175885016, 40.36863431285331], [108.79753870613038, 40.36808455120533], [108.79707302641444, 40.36726671355652] ] ] ] } },
    { "type": "Feature", "properties": { "GID": 43, "Broj": "1185", "KatOpcina": 4021, "GranicniKa": null, "PL": 562, "Povrsina": 28852 }, "geometry": { "type": "MultiPolygon", "coordinates": [ [ [ [108.79625546171519, 40.36499089134948], [108.79680778173235, 40.36568993469736], [108.79683024779348, 40.365717586879896], [108.79696216785682, 40.36560395963169], [108.79709881197746, 40.36548930856295], [108.79723997355129, 40.365339020859004], [108.79731471287988, 40.36527232684295], [108.79735843253768, 40.36523940676293], [108.7973363011271, 40.365214671536265], [108.79671307465094, 40.36446543446832], [108.79623396246753, 40.36388942056463], [108.79621209684532, 40.36386096521705], [108.79601264547945, 40.363964718635856], [108.79579068984646, 40.3640773300587], [108.79560859948093, 40.364169997898124], [108.795621159503, 40.364186010294596], [108.79565204034711, 40.36422538353566], [108.79566132346885, 40.36423663617721], [108.79588532871412, 40.36452101747707], [108.79625546171519, 40.36499089134948] ] ] ] } },
    { "type": "Feature", "properties": { "GID": 47, "Broj": "1152/1", "KatOpcina": 4021, "GranicniKa": null, "PL": 299, "Povrsina": 2449 }, "geometry": { "type": "MultiPolygon", "coordinates": [ [ [ [108.79633049782113, 40.367594968006806], [108.79629513939555, 40.367606767099524], [108.79659997083482, 40.36814759530006], [108.79712040466778, 40.36907090183345], [108.79760432019533, 40.36991890945017], [108.79764750131307, 40.369908342792954], [108.79664342951001, 40.36814467708833], [108.79633049782113, 40.367594968006806] ] ] ] } },
    { "type": "Feature", "properties": { "GID": 48, "Broj": "1152/2", "KatOpcina": 4021, "GranicniKa": null, "PL": 299, "Povrsina": 7003 }, "geometry": { "type": "MultiPolygon", "coordinates": [ [ [ [108.79629513939555, 40.367606767099524], [108.79617613891726, 40.367646487181496], [108.79646649374546, 40.368156557920365], [108.79748621471724, 40.36994780940019], [108.79760432019533, 40.36991890945017], [108.79712040466778, 40.36907090183345], [108.79659997083482, 40.36814759530006], [108.79629513939555, 40.367606767099524] ] ] ] } },
    { "type": "Feature", "properties": { "GID": 46, "Broj": "1420", "KatOpcina": 4021, "GranicniKa": "G", "PL": 654, "Povrsina": 21346 }, "geometry": { "type": "MultiPolygon", "coordinates": [ [ [ [108.79671578161845, 40.36342066746702], [108.7969818367572, 40.36327986895303], [108.79490901363346, 40.36091427849295], [108.79490736031758, 40.360912391140154], [108.79488177820222, 40.36088318758427], [108.79477259221966, 40.360888693710045], [108.79450882712351, 40.36090193077449], [108.79453961723615, 40.360937075590414], [108.79671578161845, 40.36342066746702] ] ] ] } },
    { "type": "Feature", "properties": { "GID": 45, "Broj": "1500", "KatOpcina": 4021, "GranicniKa": "G", "PL": 33, "Povrsina": 13484 }, "geometry": { "type": "MultiPolygon", "coordinates": [ [ [ [108.79721254203918, 40.370895376564974], [108.79723943526497, 40.370980298969414], [108.79724670998289, 40.37107782795703], [108.79734171302641, 40.37118481230031], [108.79741177150827, 40.37118098891395], [108.79750473164422, 40.37110277620877], [108.79783922395531, 40.370677596195314], [108.79788207402504, 40.370623622414826], [108.79760692400377, 40.370128737766166], [108.79687868173541, 40.370306177134175], [108.79685456051139, 40.370311676602974], [108.79699522941554, 40.370559354639354], [108.79721254203918, 40.370895376564974] ] ] ] } },
    { "type": "Feature", "properties": { "GID": 44, "Broj": "1174", "KatOpcina": 4021, "GranicniKa": null, "PL": 890, "Povrsina": 40538 }, "geometry": { "type": "MultiPolygon", "coordinates": [ [ [ [108.7963405589102, 40.367541318136816], [108.79668440773662, 40.367389469218], [108.79700019533152, 40.36725032103588], [108.79719087585033, 40.36717107744733], [108.79752670246016, 40.367021055224136], [108.79693763080644, 40.365708258813406], [108.79687497139405, 40.3657630288905], [108.79665344114306, 40.36596515945124], [108.79648821606533, 40.36610942020458], [108.79630210622256, 40.36621304609141], [108.79617546290986, 40.36626687860995], [108.79583335543836, 40.36642777608554], [108.79575430595023, 40.366463655715876], [108.79572268286306, 40.366471422606494], [108.79621536304802, 40.3675837075158], [108.7963405589102, 40.367541318136816] ] ] ] } },
    { "type": "Feature", "properties": { "GID": 148, "Broj": "1251", "KatOpcina": 4021, "GranicniKa": null, "PL": 334, "Povrsina": 8380 }, "geometry": { "type": "MultiPolygon", "coordinates": [ [ [ [108.79372489666035, 40.359993986395466], [108.79346516341667, 40.359686453185965], [108.793393470599, 40.35990094909819], [108.79330960128871, 40.35994760844362], [108.79378017027224, 40.36047597802298], [108.7942105058641, 40.36095916450436], [108.79421238479937, 40.360961272156636], [108.79421550246492, 40.360958829165405], [108.79428260810205, 40.36090617928462], [108.79442551844792, 40.360823517156724], [108.79372489666035, 40.359993986395466] ] ] ] } },
    { "type": "Feature", "properties": { "GID": 149, "Broj": "1105", "KatOpcina": 4021, "GranicniKa": null, "PL": 754, "Povrsina": 13193 }, "geometry": { "type": "MultiPolygon", "coordinates": [ [ [ [108.79398829988935, 40.37104258802194], [108.79376333336651, 40.371098016357266], [108.79450281155215, 40.37196319670872], [108.79519001104849, 40.37276717164373], [108.79566767844753, 40.37332598549401], [108.79579969995503, 40.373161948085844], [108.79514780038949, 40.372399250316306], [108.79476033478603, 40.371945916973566], [108.79398829988935, 40.37104258802194] ] ] ] } },
    { "type": "Feature", "properties": { "GID": 152, "Broj": "1088", "KatOpcina": 4021, "GranicniKa": null, "PL": 323, "Povrsina": 14530 }, "geometry": { "type": "MultiPolygon", "coordinates": [ [ [ [108.79469574260051, 40.374785995075754], [108.79452847149706, 40.37499544211458], [108.79532670038951, 40.37540807477305], [108.795478053294, 40.37527771084076], [108.79587717633022, 40.37493392628718], [108.79541096108709, 40.37469296361559], [108.7949565233906, 40.37445807689774], [108.79469574260051, 40.374785995075754] ] ] ] } },
    { "type": "Feature", "properties": { "GID": 151, "Broj": "1170", "KatOpcina": 4021, "GranicniKa": null, "PL": 742, "Povrsina": 8770 }, "geometry": { "type": "MultiPolygon", "coordinates": [ [ [ [108.79443644465806, 40.366640419119456], [108.79430427587864, 40.366699731616166], [108.79428417764511, 40.36671013543471], [108.79456897079567, 40.367353509336176], [108.79486570744801, 40.368023840482294], [108.79512435180824, 40.367939925852895], [108.7945265460782, 40.366589630762434], [108.7944840946361, 40.36661355625186], [108.79443644465806, 40.366640419119456] ] ] ] } }
]
